{
  "compilerOptions": {
    "emitDecoratorMetadata": true,
    "experimentalDecorators": true,
    "sourceMap": true,
    "noEmitHelpers": true
  },
  "exclude": ["node_modules"],
  "awesomeTypescriptLoaderOptions": {
    "forkChecker": true,
    "useWebpackText": true
  }
}
